Using CemConnector • CemConnector
…
CemConnector requires 3 fields for searching for relationships: conceptId, includeDescendants and isExcluded. Other fields can be present in the data.frame, but will be unused in searches.

Negative control suggestions

Negative controls are one of the most common ways to use the information within the CEM in observational health research. Cem Connector is capable of suggesting negative controls for use in population level effect estimate studies. Negative controls are intended to be exposures or outcomes selected because they are believed to have no direct causal relationship with the outcome of interest. For example, in-grown toe-nails are not caused by exposure to ACE inhibitors. However, in-grown toenails are extremely common, and many patients will experience this outcome while exposed to the drug. Consequently, any observed effect is a product of residual bias (e.g. from the study design choices) and this can be used to produce calibrated effect estimates.

The design of a PLE study is outside the scope of this viggnette, however, the selection of outcomes/exposures can be achieved at the concept level. Here, the CemConnector takes a concept set as a parameter and finds outcomes our exposures that have no mapped relationships within the CEM. We note that these mappings are not perfect and human curation by experienced clinicians is advised.

To find negative control outcomes for the above ingredient set use the following code, for example the drug Codene.

ingredientConceptSet <- data.frame(conceptId = c(1201620), includeDescendants = c(1), isExcluded = c(0))
outcomeConcepts <- cemConnection$getSuggestedControlCondtions(ingredientConceptSet)
outcomeConcepts
#> # A tibble: 50 × 2
#>    conceptId conceptName                        
#>        <int> <chr>                              
#>  1    436070 Vitamin D deficiency               
#>  2     80816 Degeneration of intervertebral disc
#>  3    374375 Impacted cerumen                   
#>  4   4079750 Osteoarthritis of knee             
#>  5    261880 Atelectasis                        
#>  6    201826 Type 2 diabetes mellitus           
#>  7    139099 Ingrowing nail                     
#>  8    381877 Dysfunction of eustachian tube     
#>  9    379805 Myopia                             
#> 10    377910 Deviated nasal septum              
#> # … with 40 more rows
…
The simplest drug concept set is of one ingredient, for example the drug Codene.

ingredientConceptSet <- data.frame(conceptId = c(1201620), includeDescendants = c(1), isExcluded = c(0))
outcomeConcepts <- cemConnection$getIngredientEvidenceSummary(ingredientConceptSet)

Though not necessary for this ingredient set, we allow the utility to look for descendants. This may be useful for an entire class of medications such as the ATC classification Other opioids:

parentIngredientSet <- data.frame(conceptId = c(21604296), includeDescendants = c(1), isExcluded = c(0))

We would like to search for any related disease concepts to this query. Cem connector provides a simple evidence summary for all resulting concepts that are in the database.

outcomeConcepts <- cemConnection$getIngredientEvidenceSummary(parentIngredientSet)
outcomeConcepts
#> # A tibble: 5,092 × 3
#>    conditionConceptId conceptName               evidenceExists
#>                 <int> <chr>                              <int>
#>  1              22350 Edema of larynx                        1
#>  2              22426 Congenital macrostomia                 0
#>  3              22820 Tuberculosis of esophagus              1
#>  4              22955 Perforation of esophagus               1
#>  5              23034 Neonatal hypoglycemia                  1
#>  6              23137 Chlamydial pharyngitis                 1
#>  7              23220 Chronic tonsillitis                    1
#>  8              23245 Esophageal bleeding                    1
#>  9              23304 Neck webbing                           1
#> 10              23325 Heartburn                              1
#> # … with 5,082 more rows

The resulting data frame is of ingredient concepts with a 1 or 0 if any evidence exists within the CEM.

For an item here, we may want to look at the specific evidence that is involved. To do this we would look at an exposure outcome pair from the concept set.

To get all the evidence found in the CEM for the ingredient concept set, what source its from and what the counts or statistics are, we can look at the entire search universe.

conditionEvidence <- cemConnection$getIngredientEvidence(parentIngredientSet)
conditionEvidence
#> # A tibble: 41 × 16
#>    conceptName1 conceptName2   conceptId1 sourceCode1 sourceCodeType1 conceptId2
#>    <chr>        <chr>               <int> <chr>       <chr>                <int>
#>  1 Codeine      Jaundice          1201620 1201620     OMOP CONCEPT_ID     137977
#>  2 Codeine      Jaundice          1201620 1201620     OMOP CONCEPT_ID     137977
#>  3 Codeine      Jaundice          1201620 1201620     OMOP CONCEPT_ID     137977
#>  4 Codeine      Jaundice          1201620 1201620     OMOP CONCEPT_ID     137977
#>  5 Codeine      Dysthymia         1201620 1201620     OMOP CONCEPT_ID     433440
#>  6 Codeine      Dysthymia         1201620 1201620     OMOP CONCEPT_ID     433440
#>  7 Codeine      Dysthymia         1201620 1201620     OMOP CONCEPT_ID     433440
#>  8 Codeine      Dysthymia         1201620 1201620     OMOP CONCEPT_ID     433440
#>  9 Codeine      Feeling nervo…    1201620 1201620     OMOP CONCEPT_ID     436817
#> 10 Codeine      Feeling nervo…    1201620 1201620     OMOP CONCEPT_ID     436817
#> # … with 31 more rows, and 10 more variables: sourceCode2 <chr>,
#> #   sourceCodeType2 <chr>, sourceId <chr>, evidenceType <chr>,
#> #   relationshipId <chr>, statisticValue <dbl>, statisticValueType <chr>,
#> #   uniqueIdentifier <chr>, uniqueIdentifierType <chr>, countHow <chr>
…
